name,accuracy,spec,bal_accuracy,precision,recall,f_meas
LDA,0.9411552020247672,0.9972092575662801,0.5354624098702584,0.6305732484076433,0.07371556217423679,0.132
Decision Tree,0.9119979369479724,0.9957322711430401,0.5484859702822639,0.7101449275362319,0.1012396694214876,0.1772151898734177
Random Forest,0.961493265841092,0.9970248092518835,0.6915970977106348,0.889087656529517,0.3861693861693862,0.5384615384615384
Null Model,0.9394592689011824,1,0.5,NA,0,NA
